<?xml version="1.0" encoding="UTF-8" standalone="no"?>
<!-- Created with Inkscape (http://www.inkscape.org/) -->
<svg
    xmlns:inkscape="http://www.inkscape.org/namespaces/inkscape"
    xmlns:rdf="http://www.w3.org/1999/02/22-rdf-syntax-ns#"
    xmlns="http://www.w3.org/2000/svg"
    xmlns:cc="http://creativecommons.org/ns#"
    xmlns:dc="http://purl.org/dc/elements/1.1/"
    xmlns:sodipodi="http://sodipodi.sourceforge.net/DTD/sodipodi-0.dtd"
    xmlns:svg="http://www.w3.org/2000/svg"
    xmlns:ns1="http://sozi.baierouge.fr"
    xmlns:xlink="http://www.w3.org/1999/xlink"
    id="svg2"
    sodipodi:docname="Icon_set_setup.svg"
    viewBox="0 0 414.01 271.06"
    version="1.1"
    inkscape:version="0.48.2 r9819"
  >
  <sodipodi:namedview
      id="base"
      bordercolor="#666666"
      inkscape:pageshadow="2"
      inkscape:window-y="0"
      fit-margin-left="0"
      pagecolor="#ffffff"
      fit-margin-top="0"
      inkscape:window-maximized="1"
      inkscape:zoom="1.4"
      inkscape:window-x="0"
      inkscape:window-height="776"
      showgrid="false"
      borderopacity="1.0"
      inkscape:current-layer="layer1"
      inkscape:cx="304.51241"
      inkscape:cy="25.758944"
      fit-margin-right="0"
      fit-margin-bottom="0"
      inkscape:window-width="1280"
      inkscape:pageopacity="0.0"
      inkscape:document-units="px"
  />
  <g
      id="layer1"
      inkscape:label="Livello 1"
      inkscape:groupmode="layer"
      transform="translate(-250.99 -308.35)"
    >
    <g
        id="g3127"
        transform="translate(251 308.36)"
      >
      <g
          id="layer1-1"
          transform="translate(0 -924.36)"
        >
        <path
            id="path3160"
            d="m128.29 64.865a63.766 63.892 0 1 1 -127.53 0 63.766 63.892 0 1 1 127.53 0z"
            style="stroke-linejoin:round;stroke:#000000;stroke-linecap:round;stroke-width:1.9947;fill:none"
            inkscape:connector-curvature="0"
            transform="matrix(.98823 0 0 .98628 .23592 924.39)"
        />
      </g
      >
      <g
          id="g3840"
          transform="translate(.68750 .81953)"
        >
        <path
            id="path3061"
            style="stroke-linejoin:round;color:#000000;stroke:#5b5b5b;stroke-linecap:round;stroke-width:.741;fill:#4d4d4d"
            inkscape:connector-curvature="0"
            d="m66.75 23.062c-2.6935 0.19912-0.1302 4.2346-3.5938 4.25-3.6945 0.01645-0.57751-4.59-4.25-4.1875-3.6725 0.40254 0.39155 4.2158-3.2188 5-3.6103 0.78421-1.4915-4.376-5-3.2188-3.5085 1.1573 1.2434 4.0448-2.125 5.5625-3.368 1.518-2.371-3.954-5.562-2.093-3.1913 1.8615 2.073 3.6901-0.90625 5.875s-3.1405-3.3905-5.875-0.90625c-2.7345 2.4843 2.7723 3.2122 0.3125 5.9688-2.4598 2.7565-3.7793-2.686-5.9375 0.3125s3.3955 2.5423 1.5625 5.75-4.2624-1.788-5.75 1.5938c-1.4876 3.3817 3.876 1.7625 2.75 5.2812s-4.5605-0.89839-5.3125 2.7188c-0.75203 3.6171 4.1511 0.94907 3.7812 4.625-0.36982 3.6759-4.6414 0.0868-4.625 3.7812 0.01645 3.6945 4.2537 0.04626 4.6562 3.7188 0.40254 3.6725-4.5342 1.046-3.75 4.6562 0.78421 3.6103 4.1865-0.82105 5.3438 2.6875 1.1573 3.5085-4.2052 1.9441-2.6875 5.3125s3.8885-1.6913 5.75 1.5-3.6849 2.802-1.5 5.7812 3.4532-2.4533 5.9375 0.28125c2.4843 2.7345-3.0378 3.4777-0.28125 5.9375 2.7565 2.4598 2.8765-3.0957 5.875-0.9375s-2.239 4.042 0.96875 5.875c3.2077 1.833 2.1808-3.6439 5.5625-2.1562 3.3817 1.4876-1.3625 4.4365 2.1562 5.5625s1.3516-4.0333 4.9688-3.2812c3.6171 0.75203-0.39468 4.5989 3.2812 4.9688 3.6759 0.36982 0.49305-4.2023 4.1875-4.2188 3.6945-0.01645 0.57751 4.59 4.25 4.1875 3.6725-0.40254-0.39155-4.2158 3.2188-5 3.6103-0.78421 1.4915 4.376 5 3.2188 3.5085-1.1573-1.2434-4.0448 2.125-5.5625s2.3712 3.9552 5.5625 2.0938c3.1913-1.8615-2.073-3.6901 0.90625-5.875s3.1405 3.3905 5.875 0.90625c2.7345-2.4843-2.7723-3.2122-0.3125-5.9688 2.4598-2.7565 3.7793 2.686 5.9375-0.3125s-3.3955-2.5423-1.5625-5.75 4.2624 1.788 5.75-1.5938c1.4876-3.3817-3.876-1.7625-2.75-5.2812s4.5605 0.89839 5.3125-2.7188c0.75203-3.6171-4.1511-0.94907-3.7812-4.625 0.36982-3.6759 4.6414-0.0868 4.625-3.7812-0.0165-3.6945-4.2537-0.04626-4.6562-3.7188-0.40254-3.6725 4.5342-1.046 3.75-4.6562-0.78421-3.6103-4.1865 0.82105-5.3438-2.6875-1.1573-3.5085 4.2052-1.9441 2.6875-5.3125s-3.8885 1.6913-5.75-1.5 3.6849-2.802 1.5-5.7812-3.4532 2.4533-5.9375-0.28125c-2.4843-2.7345 3.0378-3.4777 0.28125-5.9375-2.7565-2.4598-2.8765 3.0957-5.875 0.9375s2.239-4.042-0.96875-5.875c-3.2077-1.833-2.1808 3.6439-5.5625 2.1562-3.3817-1.4876 1.3625-4.4365-2.1562-5.5625-3.517-1.127-1.35 4.033-4.967 3.28-3.617-0.752 0.395-4.598-3.281-4.968-0.23-0.023-0.414-0.045-0.594-0.032zm-7.094 30.438c0.83307 0.0047 1.9739 0.0625 3.6562 0.0625 6.7293 0 4.9479-1.0152 8.3125 4.8125s3.3646 3.7973 0 9.625-1.5832 4.8125-8.3125 4.8125-4.9479 1.0152-8.3125-4.8125-3.3646-3.7973 0-9.625c2.5235-4.3708 2.157-4.889 4.6562-4.875z"
        />
        <path
            id="path3069"
            d="m80 63c0 8.284-7.835 15-17.5 15s-17.5-6.716-17.5-15 7.835-15 17.5-15 17.5 6.716 17.5 15z"
            style="stroke-linejoin:round;color:#000000;stroke:#5b5b5b;stroke-linecap:round;stroke-width:.82862;fill:none"
            inkscape:connector-curvature="0"
            transform="matrix(1.1173 0 0 1.3035 -6.5192 -18.942)"
        />
      </g
      >
    </g
    >
    <g
        id="g3282"
        transform="translate(394 308.36)"
      >
      <g
          id="layer1-4"
          transform="translate(0 -924.36)"
        >
        <path
            id="path3160-4"
            d="m128.29 64.865a63.766 63.892 0 1 1 -127.53 0 63.766 63.892 0 1 1 127.53 0z"
            style="stroke-linejoin:round;stroke:#000000;stroke-linecap:round;stroke-width:1.9947;fill:none"
            inkscape:connector-curvature="0"
            transform="matrix(.98823 0 0 .98628 .23592 924.39)"
        />
      </g
      >
      <g
          id="g3840-0"
          transform="matrix(.76927 0 0 .76927 2.1085 20.844)"
        >
        <path
            id="path3061-7"
            style="stroke-linejoin:round;color:#000000;stroke:#5b5b5b;stroke-linecap:round;stroke-width:.741;fill:#4d4d4d"
            inkscape:connector-curvature="0"
            d="m66.75 23.062c-2.6935 0.19912-0.1302 4.2346-3.5938 4.25-3.6945 0.01645-0.57751-4.59-4.25-4.1875-3.6725 0.40254 0.39155 4.2158-3.2188 5-3.6103 0.78421-1.4915-4.376-5-3.2188-3.5085 1.1573 1.2434 4.0448-2.125 5.5625-3.368 1.518-2.371-3.954-5.562-2.093-3.1913 1.8615 2.073 3.6901-0.90625 5.875s-3.1405-3.3905-5.875-0.90625c-2.7345 2.4843 2.7723 3.2122 0.3125 5.9688-2.4598 2.7565-3.7793-2.686-5.9375 0.3125s3.3955 2.5423 1.5625 5.75-4.2624-1.788-5.75 1.5938c-1.4876 3.3817 3.876 1.7625 2.75 5.2812s-4.5605-0.89839-5.3125 2.7188c-0.75203 3.6171 4.1511 0.94907 3.7812 4.625-0.36982 3.6759-4.6414 0.0868-4.625 3.7812 0.01645 3.6945 4.2537 0.04626 4.6562 3.7188 0.40254 3.6725-4.5342 1.046-3.75 4.6562 0.78421 3.6103 4.1865-0.82105 5.3438 2.6875 1.1573 3.5085-4.2052 1.9441-2.6875 5.3125s3.8885-1.6913 5.75 1.5-3.6849 2.802-1.5 5.7812 3.4532-2.4533 5.9375 0.28125c2.4843 2.7345-3.0378 3.4777-0.28125 5.9375 2.7565 2.4598 2.8765-3.0957 5.875-0.9375s-2.239 4.042 0.96875 5.875c3.2077 1.833 2.1808-3.6439 5.5625-2.1562 3.3817 1.4876-1.3625 4.4365 2.1562 5.5625s1.3516-4.0333 4.9688-3.2812c3.6171 0.75203-0.39468 4.5989 3.2812 4.9688 3.6759 0.36982 0.49305-4.2023 4.1875-4.2188 3.6945-0.01645 0.57751 4.59 4.25 4.1875 3.6725-0.40254-0.39155-4.2158 3.2188-5 3.6103-0.78421 1.4915 4.376 5 3.2188 3.5085-1.1573-1.2434-4.0448 2.125-5.5625s2.3712 3.9552 5.5625 2.0938c3.1913-1.8615-2.073-3.6901 0.90625-5.875s3.1405 3.3905 5.875 0.90625c2.7345-2.4843-2.7723-3.2122-0.3125-5.9688 2.4598-2.7565 3.7793 2.686 5.9375-0.3125s-3.3955-2.5423-1.5625-5.75 4.2624 1.788 5.75-1.5938c1.4876-3.3817-3.876-1.7625-2.75-5.2812s4.5605 0.89839 5.3125-2.7188c0.75203-3.6171-4.1511-0.94907-3.7812-4.625 0.36982-3.6759 4.6414-0.0868 4.625-3.7812-0.0165-3.6945-4.2537-0.04626-4.6562-3.7188-0.40254-3.6725 4.5342-1.046 3.75-4.6562-0.78421-3.6103-4.1865 0.82105-5.3438-2.6875-1.1573-3.5085 4.2052-1.9441 2.6875-5.3125s-3.8885 1.6913-5.75-1.5 3.6849-2.802 1.5-5.7812-3.4532 2.4533-5.9375-0.28125c-2.4843-2.7345 3.0378-3.4777 0.28125-5.9375-2.7565-2.4598-2.8765 3.0957-5.875 0.9375s2.239-4.042-0.96875-5.875c-3.2077-1.833-2.1808 3.6439-5.5625 2.1562-3.3817-1.4876 1.3625-4.4365-2.1562-5.5625-3.517-1.127-1.35 4.033-4.967 3.28-3.617-0.752 0.395-4.598-3.281-4.968-0.23-0.023-0.414-0.045-0.594-0.032zm-7.094 30.438c0.83307 0.0047 1.9739 0.0625 3.6562 0.0625 6.7293 0 4.9479-1.0152 8.3125 4.8125s3.3646 3.7973 0 9.625-1.5832 4.8125-8.3125 4.8125-4.9479 1.0152-8.3125-4.8125-3.3646-3.7973 0-9.625c2.5235-4.3708 2.157-4.889 4.6562-4.875z"
        />
        <path
            id="path3069-7"
            d="m80 63c0 8.284-7.835 15-17.5 15s-17.5-6.716-17.5-15 7.835-15 17.5-15 17.5 6.716 17.5 15z"
            style="stroke-linejoin:round;color:#000000;stroke:#5b5b5b;stroke-linecap:round;stroke-width:.82862;fill:none"
            inkscape:connector-curvature="0"
            transform="matrix(1.1173 0 0 1.3035 -6.5192 -18.942)"
        />
      </g
      >
      <g
          id="g3882"
          transform="matrix(0.533 0 0 0.533 49.255 12.903)"
        >
        <path
            id="path3884"
            style="stroke-linejoin:round;color:#000000;stroke:#5b5b5b;stroke-linecap:round;stroke-width:1.3133;fill:#4d4d4d"
            inkscape:connector-curvature="0"
            d="m66.75 23.062c-2.6935 0.19912-0.1302 4.2346-3.5938 4.25-3.6945 0.01645-0.57751-4.59-4.25-4.1875-3.6725 0.40254 0.39155 4.2158-3.2188 5-3.6103 0.78421-1.4915-4.376-5-3.2188-3.5085 1.1573 1.2434 4.0448-2.125 5.5625-3.368 1.518-2.371-3.954-5.562-2.093-3.1913 1.8615 2.073 3.6901-0.90625 5.875s-3.1405-3.3905-5.875-0.90625c-2.7345 2.4843 2.7723 3.2122 0.3125 5.9688-2.4598 2.7565-3.7793-2.686-5.9375 0.3125s3.3955 2.5423 1.5625 5.75-4.2624-1.788-5.75 1.5938c-1.4876 3.3817 3.876 1.7625 2.75 5.2812s-4.5605-0.89839-5.3125 2.7188c-0.75203 3.6171 4.1511 0.94907 3.7812 4.625-0.36982 3.6759-4.6414 0.0868-4.625 3.7812 0.01645 3.6945 4.2537 0.04626 4.6562 3.7188 0.40254 3.6725-4.5342 1.046-3.75 4.6562 0.78421 3.6103 4.1865-0.82105 5.3438 2.6875 1.1573 3.5085-4.2052 1.9441-2.6875 5.3125s3.8885-1.6913 5.75 1.5-3.6849 2.802-1.5 5.7812 3.4532-2.4533 5.9375 0.28125c2.4843 2.7345-3.0378 3.4777-0.28125 5.9375 2.7565 2.4598 2.8765-3.0957 5.875-0.9375s-2.239 4.042 0.96875 5.875c3.2077 1.833 2.1808-3.6439 5.5625-2.1562 3.3817 1.4876-1.3625 4.4365 2.1562 5.5625s1.3516-4.0333 4.9688-3.2812c3.6171 0.75203-0.39468 4.5989 3.2812 4.9688 3.6759 0.36982 0.49305-4.2023 4.1875-4.2188 3.6945-0.01645 0.57751 4.59 4.25 4.1875 3.6725-0.40254-0.39155-4.2158 3.2188-5 3.6103-0.78421 1.4915 4.376 5 3.2188 3.5085-1.1573-1.2434-4.0448 2.125-5.5625s2.3712 3.9552 5.5625 2.0938c3.1913-1.8615-2.073-3.6901 0.90625-5.875s3.1405 3.3905 5.875 0.90625c2.7345-2.4843-2.7723-3.2122-0.3125-5.9688 2.4598-2.7565 3.7793 2.686 5.9375-0.3125s-3.3955-2.5423-1.5625-5.75 4.2624 1.788 5.75-1.5938c1.4876-3.3817-3.876-1.7625-2.75-5.2812s4.5605 0.89839 5.3125-2.7188c0.75203-3.6171-4.1511-0.94907-3.7812-4.625 0.36982-3.6759 4.6414-0.0868 4.625-3.7812-0.0165-3.6945-4.2537-0.04626-4.6562-3.7188-0.40254-3.6725 4.5342-1.046 3.75-4.6562-0.78421-3.6103-4.1865 0.82105-5.3438-2.6875-1.1573-3.5085 4.2052-1.9441 2.6875-5.3125s-3.8885 1.6913-5.75-1.5 3.6849-2.802 1.5-5.7812-3.4532 2.4533-5.9375-0.28125c-2.4843-2.7345 3.0378-3.4777 0.28125-5.9375-2.7565-2.4598-2.8765 3.0957-5.875 0.9375s2.239-4.042-0.96875-5.875c-3.2077-1.833-2.1808 3.6439-5.5625 2.1562-3.3817-1.4876 1.3625-4.4365-2.1562-5.5625-3.517-1.127-1.35 4.033-4.967 3.28-3.617-0.752 0.395-4.598-3.281-4.968-0.23-0.023-0.414-0.045-0.594-0.032zm-7.094 30.438c0.83307 0.0047 1.9739 0.0625 3.6562 0.0625 6.7293 0 4.9479-1.0152 8.3125 4.8125s3.3646 3.7973 0 9.625-1.5832 4.8125-8.3125 4.8125-4.9479 1.0152-8.3125-4.8125-3.3646-3.7973 0-9.625c2.5235-4.3708 2.157-4.889 4.6562-4.875z"
        />
        <path
            id="path3886"
            d="m80 63c0 8.284-7.835 15-17.5 15s-17.5-6.716-17.5-15 7.835-15 17.5-15 17.5 6.716 17.5 15z"
            style="stroke-linejoin:round;color:#000000;stroke:#5b5b5b;stroke-linecap:round;stroke-width:1.0882;fill:none"
            inkscape:connector-curvature="0"
            transform="matrix(1.1173 0 0 1.3035 -6.5192 -18.942)"
        />
      </g
      >
    </g
    >
    <g
        id="g3446"
        transform="translate(537 308.36)"
      >
      <g
          id="layer1-48"
          transform="translate(0 -924.36)"
        >
        <path
            id="path3160-3"
            d="m128.29 64.865a63.766 63.892 0 1 1 -127.53 0 63.766 63.892 0 1 1 127.53 0z"
            style="stroke-linejoin:round;stroke:#000000;stroke-linecap:round;stroke-width:1.9947;fill:none"
            inkscape:connector-curvature="0"
            transform="matrix(.98823 0 0 .98628 .23592 924.39)"
        />
      </g
      >
      <g
          id="g3840-6"
          transform="matrix(.76927 0 0 .76927 2.1085 20.844)"
        >
        <path
            id="path3061-6"
            style="stroke-linejoin:round;color:#000000;stroke:#5b5b5b;stroke-linecap:round;stroke-width:.741;fill:#4d4d4d"
            inkscape:connector-curvature="0"
            d="m66.75 23.062c-2.6935 0.19912-0.1302 4.2346-3.5938 4.25-3.6945 0.01645-0.57751-4.59-4.25-4.1875-3.6725 0.40254 0.39155 4.2158-3.2188 5-3.6103 0.78421-1.4915-4.376-5-3.2188-3.5085 1.1573 1.2434 4.0448-2.125 5.5625-3.368 1.518-2.371-3.954-5.562-2.093-3.1913 1.8615 2.073 3.6901-0.90625 5.875s-3.1405-3.3905-5.875-0.90625c-2.7345 2.4843 2.7723 3.2122 0.3125 5.9688-2.4598 2.7565-3.7793-2.686-5.9375 0.3125s3.3955 2.5423 1.5625 5.75-4.2624-1.788-5.75 1.5938c-1.4876 3.3817 3.876 1.7625 2.75 5.2812s-4.5605-0.89839-5.3125 2.7188c-0.75203 3.6171 4.1511 0.94907 3.7812 4.625-0.36982 3.6759-4.6414 0.0868-4.625 3.7812 0.01645 3.6945 4.2537 0.04626 4.6562 3.7188 0.40254 3.6725-4.5342 1.046-3.75 4.6562 0.78421 3.6103 4.1865-0.82105 5.3438 2.6875 1.1573 3.5085-4.2052 1.9441-2.6875 5.3125s3.8885-1.6913 5.75 1.5-3.6849 2.802-1.5 5.7812 3.4532-2.4533 5.9375 0.28125c2.4843 2.7345-3.0378 3.4777-0.28125 5.9375 2.7565 2.4598 2.8765-3.0957 5.875-0.9375s-2.239 4.042 0.96875 5.875c3.2077 1.833 2.1808-3.6439 5.5625-2.1562 3.3817 1.4876-1.3625 4.4365 2.1562 5.5625s1.3516-4.0333 4.9688-3.2812c3.6171 0.75203-0.39468 4.5989 3.2812 4.9688 3.6759 0.36982 0.49305-4.2023 4.1875-4.2188 3.6945-0.01645 0.57751 4.59 4.25 4.1875 3.6725-0.40254-0.39155-4.2158 3.2188-5 3.6103-0.78421 1.4915 4.376 5 3.2188 3.5085-1.1573-1.2434-4.0448 2.125-5.5625s2.3712 3.9552 5.5625 2.0938c3.1913-1.8615-2.073-3.6901 0.90625-5.875s3.1405 3.3905 5.875 0.90625c2.7345-2.4843-2.7723-3.2122-0.3125-5.9688 2.4598-2.7565 3.7793 2.686 5.9375-0.3125s-3.3955-2.5423-1.5625-5.75 4.2624 1.788 5.75-1.5938c1.4876-3.3817-3.876-1.7625-2.75-5.2812s4.5605 0.89839 5.3125-2.7188c0.75203-3.6171-4.1511-0.94907-3.7812-4.625 0.36982-3.6759 4.6414-0.0868 4.625-3.7812-0.0165-3.6945-4.2537-0.04626-4.6562-3.7188-0.40254-3.6725 4.5342-1.046 3.75-4.6562-0.78421-3.6103-4.1865 0.82105-5.3438-2.6875-1.1573-3.5085 4.2052-1.9441 2.6875-5.3125s-3.8885 1.6913-5.75-1.5 3.6849-2.802 1.5-5.7812-3.4532 2.4533-5.9375-0.28125c-2.4843-2.7345 3.0378-3.4777 0.28125-5.9375-2.7565-2.4598-2.8765 3.0957-5.875 0.9375s2.239-4.042-0.96875-5.875c-3.2077-1.833-2.1808 3.6439-5.5625 2.1562-3.3817-1.4876 1.3625-4.4365-2.1562-5.5625-3.517-1.127-1.35 4.033-4.967 3.28-3.617-0.752 0.395-4.598-3.281-4.968-0.23-0.023-0.414-0.045-0.594-0.032zm-7.094 30.438c0.83307 0.0047 1.9739 0.0625 3.6562 0.0625 6.7293 0 4.9479-1.0152 8.3125 4.8125s3.3646 3.7973 0 9.625-1.5832 4.8125-8.3125 4.8125-4.9479 1.0152-8.3125-4.8125-3.3646-3.7973 0-9.625c2.5235-4.3708 2.157-4.889 4.6562-4.875z"
        />
        <path
            id="path3069-5"
            d="m80 63c0 8.284-7.835 15-17.5 15s-17.5-6.716-17.5-15 7.835-15 17.5-15 17.5 6.716 17.5 15z"
            style="stroke-linejoin:round;color:#000000;stroke:#5b5b5b;stroke-linecap:round;stroke-width:.82862;fill:none"
            inkscape:connector-curvature="0"
            transform="matrix(1.1173 0 0 1.3035 -6.5192 -18.942)"
        />
      </g
      >
      <g
          id="g3882-5"
          transform="matrix(0.533 0 0 0.533 49.255 12.903)"
        >
        <path
            id="path3884-7"
            style="stroke-linejoin:round;color:#000000;stroke:#5b5b5b;stroke-linecap:round;stroke-width:1.3133;fill:#4d4d4d"
            inkscape:connector-curvature="0"
            d="m66.75 23.062c-2.6935 0.19912-0.1302 4.2346-3.5938 4.25-3.6945 0.01645-0.57751-4.59-4.25-4.1875-3.6725 0.40254 0.39155 4.2158-3.2188 5-3.6103 0.78421-1.4915-4.376-5-3.2188-3.5085 1.1573 1.2434 4.0448-2.125 5.5625-3.368 1.518-2.371-3.954-5.562-2.093-3.1913 1.8615 2.073 3.6901-0.90625 5.875s-3.1405-3.3905-5.875-0.90625c-2.7345 2.4843 2.7723 3.2122 0.3125 5.9688-2.4598 2.7565-3.7793-2.686-5.9375 0.3125s3.3955 2.5423 1.5625 5.75-4.2624-1.788-5.75 1.5938c-1.4876 3.3817 3.876 1.7625 2.75 5.2812s-4.5605-0.89839-5.3125 2.7188c-0.75203 3.6171 4.1511 0.94907 3.7812 4.625-0.36982 3.6759-4.6414 0.0868-4.625 3.7812 0.01645 3.6945 4.2537 0.04626 4.6562 3.7188 0.40254 3.6725-4.5342 1.046-3.75 4.6562 0.78421 3.6103 4.1865-0.82105 5.3438 2.6875 1.1573 3.5085-4.2052 1.9441-2.6875 5.3125s3.8885-1.6913 5.75 1.5-3.6849 2.802-1.5 5.7812 3.4532-2.4533 5.9375 0.28125c2.4843 2.7345-3.0378 3.4777-0.28125 5.9375 2.7565 2.4598 2.8765-3.0957 5.875-0.9375s-2.239 4.042 0.96875 5.875c3.2077 1.833 2.1808-3.6439 5.5625-2.1562 3.3817 1.4876-1.3625 4.4365 2.1562 5.5625s1.3516-4.0333 4.9688-3.2812c3.6171 0.75203-0.39468 4.5989 3.2812 4.9688 3.6759 0.36982 0.49305-4.2023 4.1875-4.2188 3.6945-0.01645 0.57751 4.59 4.25 4.1875 3.6725-0.40254-0.39155-4.2158 3.2188-5 3.6103-0.78421 1.4915 4.376 5 3.2188 3.5085-1.1573-1.2434-4.0448 2.125-5.5625s2.3712 3.9552 5.5625 2.0938c3.1913-1.8615-2.073-3.6901 0.90625-5.875s3.1405 3.3905 5.875 0.90625c2.7345-2.4843-2.7723-3.2122-0.3125-5.9688 2.4598-2.7565 3.7793 2.686 5.9375-0.3125s-3.3955-2.5423-1.5625-5.75 4.2624 1.788 5.75-1.5938c1.4876-3.3817-3.876-1.7625-2.75-5.2812s4.5605 0.89839 5.3125-2.7188c0.75203-3.6171-4.1511-0.94907-3.7812-4.625 0.36982-3.6759 4.6414-0.0868 4.625-3.7812-0.0165-3.6945-4.2537-0.04626-4.6562-3.7188-0.40254-3.6725 4.5342-1.046 3.75-4.6562-0.78421-3.6103-4.1865 0.82105-5.3438-2.6875-1.1573-3.5085 4.2052-1.9441 2.6875-5.3125s-3.8885 1.6913-5.75-1.5 3.6849-2.802 1.5-5.7812-3.4532 2.4533-5.9375-0.28125c-2.4843-2.7345 3.0378-3.4777 0.28125-5.9375-2.7565-2.4598-2.8765 3.0957-5.875 0.9375s2.239-4.042-0.96875-5.875c-3.2077-1.833-2.1808 3.6439-5.5625 2.1562-3.3817-1.4876 1.3625-4.4365-2.1562-5.5625-3.517-1.127-1.35 4.033-4.967 3.28-3.617-0.752 0.395-4.598-3.281-4.968-0.23-0.023-0.414-0.045-0.594-0.032zm-7.094 30.438c0.83307 0.0047 1.9739 0.0625 3.6562 0.0625 6.7293 0 4.9479-1.0152 8.3125 4.8125s3.3646 3.7973 0 9.625-1.5832 4.8125-8.3125 4.8125-4.9479 1.0152-8.3125-4.8125-3.3646-3.7973 0-9.625c2.5235-4.3708 2.157-4.889 4.6562-4.875z"
        />
        <path
            id="path3886-3"
            d="m80 63c0 8.284-7.835 15-17.5 15s-17.5-6.716-17.5-15 7.835-15 17.5-15 17.5 6.716 17.5 15z"
            style="stroke-linejoin:round;color:#000000;stroke:#5b5b5b;stroke-linecap:round;stroke-width:1.0882;fill:none"
            inkscape:connector-curvature="0"
            transform="matrix(1.1173 0 0 1.3035 -6.5192 -18.942)"
        />
      </g
      >
      <g
          id="g3907"
          transform="matrix(.36524 0 0 .36524 64.912 51.164)"
        >
        <path
            id="path3909"
            style="stroke-linejoin:round;color:#000000;stroke:#5b5b5b;stroke-linecap:round;stroke-width:1.9166;fill:#4d4d4d"
            inkscape:connector-curvature="0"
            d="m66.75 23.062c-2.6935 0.19912-0.1302 4.2346-3.5938 4.25-3.6945 0.01645-0.57751-4.59-4.25-4.1875-3.6725 0.40254 0.39155 4.2158-3.2188 5-3.6103 0.78421-1.4915-4.376-5-3.2188-3.5085 1.1573 1.2434 4.0448-2.125 5.5625-3.368 1.518-2.371-3.954-5.562-2.093-3.1913 1.8615 2.073 3.6901-0.90625 5.875s-3.1405-3.3905-5.875-0.90625c-2.7345 2.4843 2.7723 3.2122 0.3125 5.9688-2.4598 2.7565-3.7793-2.686-5.9375 0.3125s3.3955 2.5423 1.5625 5.75-4.2624-1.788-5.75 1.5938c-1.4876 3.3817 3.876 1.7625 2.75 5.2812s-4.5605-0.89839-5.3125 2.7188c-0.75203 3.6171 4.1511 0.94907 3.7812 4.625-0.36982 3.6759-4.6414 0.0868-4.625 3.7812 0.01645 3.6945 4.2537 0.04626 4.6562 3.7188 0.40254 3.6725-4.5342 1.046-3.75 4.6562 0.78421 3.6103 4.1865-0.82105 5.3438 2.6875 1.1573 3.5085-4.2052 1.9441-2.6875 5.3125s3.8885-1.6913 5.75 1.5-3.6849 2.802-1.5 5.7812 3.4532-2.4533 5.9375 0.28125c2.4843 2.7345-3.0378 3.4777-0.28125 5.9375 2.7565 2.4598 2.8765-3.0957 5.875-0.9375s-2.239 4.042 0.96875 5.875c3.2077 1.833 2.1808-3.6439 5.5625-2.1562 3.3817 1.4876-1.3625 4.4365 2.1562 5.5625s1.3516-4.0333 4.9688-3.2812c3.6171 0.75203-0.39468 4.5989 3.2812 4.9688 3.6759 0.36982 0.49305-4.2023 4.1875-4.2188 3.6945-0.01645 0.57751 4.59 4.25 4.1875 3.6725-0.40254-0.39155-4.2158 3.2188-5 3.6103-0.78421 1.4915 4.376 5 3.2188 3.5085-1.1573-1.2434-4.0448 2.125-5.5625s2.3712 3.9552 5.5625 2.0938c3.1913-1.8615-2.073-3.6901 0.90625-5.875s3.1405 3.3905 5.875 0.90625c2.7345-2.4843-2.7723-3.2122-0.3125-5.9688 2.4598-2.7565 3.7793 2.686 5.9375-0.3125s-3.3955-2.5423-1.5625-5.75 4.2624 1.788 5.75-1.5938c1.4876-3.3817-3.876-1.7625-2.75-5.2812s4.5605 0.89839 5.3125-2.7188c0.75203-3.6171-4.1511-0.94907-3.7812-4.625 0.36982-3.6759 4.6414-0.0868 4.625-3.7812-0.0165-3.6945-4.2537-0.04626-4.6562-3.7188-0.40254-3.6725 4.5342-1.046 3.75-4.6562-0.78421-3.6103-4.1865 0.82105-5.3438-2.6875-1.1573-3.5085 4.2052-1.9441 2.6875-5.3125s-3.8885 1.6913-5.75-1.5 3.6849-2.802 1.5-5.7812-3.4532 2.4533-5.9375-0.28125c-2.4843-2.7345 3.0378-3.4777 0.28125-5.9375-2.7565-2.4598-2.8765 3.0957-5.875 0.9375s2.239-4.042-0.96875-5.875c-3.2077-1.833-2.1808 3.6439-5.5625 2.1562-3.3817-1.4876 1.3625-4.4365-2.1562-5.5625-3.517-1.127-1.35 4.033-4.967 3.28-3.617-0.752 0.395-4.598-3.281-4.968-0.23-0.023-0.414-0.045-0.594-0.032zm-7.094 30.438c0.83307 0.0047 1.9739 0.0625 3.6562 0.0625 6.7293 0 4.9479-1.0152 8.3125 4.8125s3.3646 3.7973 0 9.625-1.5832 4.8125-8.3125 4.8125-4.9479 1.0152-8.3125-4.8125-3.3646-3.7973 0-9.625c2.5235-4.3708 2.157-4.889 4.6562-4.875z"
        />
        <path
            id="path3911"
            d="m80 63c0 8.284-7.835 15-17.5 15s-17.5-6.716-17.5-15 7.835-15 17.5-15 17.5 6.716 17.5 15z"
            style="stroke-linejoin:round;color:#000000;stroke:#5b5b5b;stroke-linecap:round;stroke-width:1.5881;fill:none"
            inkscape:connector-curvature="0"
            transform="matrix(1.1173 0 0 1.3035 -6.5192 -18.942)"
        />
      </g
      >
    </g
    >
    <g
        id="g3635"
        transform="translate(251 451.39)"
      >
      <g
          id="layer1-8"
          transform="translate(0 -924.36)"
        >
        <path
            id="path3160-5"
            d="m128.29 64.865a63.766 63.892 0 1 1 -127.53 0 63.766 63.892 0 1 1 127.53 0z"
            style="stroke-linejoin:round;stroke:#000000;stroke-linecap:round;stroke-width:1.9947;fill:none"
            inkscape:connector-curvature="0"
            transform="matrix(.98823 0 0 .98628 .23592 924.39)"
        />
      </g
      >
      <path
          id="path3935"
          style="stroke-linejoin:round;color:#000000;stroke:#5b5b5b;stroke-linecap:round;stroke-width:.82161;fill:#4d4d4d"
          inkscape:connector-curvature="0"
          d="m84.669 15.074c-8.869-1.55-11.672 0.887-18.613 10.275-4.643 6.28-2.373 14.417 1.092 20.196l-39.737 53.746c-2.1578 2.9185-1.5446 7.0109 1.3739 9.1688l2.2866 1.6906c2.9185 2.1578 7.0109 1.5446 9.1688-1.3739l39.759-53.78c6.3191 1.4418 14.402 0.97837 19.081-5.2344 6.9534-9.234 9.0965-12.303 5.0149-20.329-9.819 13.275-5.801 10.644-15.514 10.817-7.611 0.136-7.611 0.136-9.713-7.181-2.681-9.337-4.018-4.724 5.796-17.999zm-47.977 85.206c1.3411 0.99155 1.6245 2.8825 0.63292 4.2236-0.99155 1.3411-2.8825 1.6245-4.2236 0.63292-1.3411-0.99155-1.6245-2.8825-0.63291-4.2236 0.99154-1.3411 2.8825-1.6244 4.2236-0.6329z"
      />
    </g
    >
    <g
        id="g3780"
        transform="translate(394 451.39)"
      >
      <g
          id="layer1-5"
          transform="translate(0 -924.36)"
        >
        <path
            id="path3160-7"
            d="m128.29 64.865a63.766 63.892 0 1 1 -127.53 0 63.766 63.892 0 1 1 127.53 0z"
            style="stroke-linejoin:round;stroke:#000000;stroke-linecap:round;stroke-width:1.9947;fill:none"
            inkscape:connector-curvature="0"
            transform="matrix(.98823 0 0 .98628 .23592 924.39)"
        />
      </g
      >
      <path
          id="path3935-9"
          style="stroke-linejoin:round;color:#000000;stroke:#5b5b5b;stroke-linecap:round;stroke-width:.75710;fill:#4d4d4d"
          inkscape:connector-curvature="0"
          d="m92.315 23.757c-7.794-2.845-10.732-1.089-18.55 6.301-5.231 4.943-4.492 12.693-2.285 18.497l-44.763 42.307c-2.4307 2.2974-2.5382 6.1091-0.24084 8.5398l1.8 1.9044c2.2974 2.4308 6.1091 2.5382 8.5398 0.24085l44.788-42.334c5.4982 2.3328 12.905 3.2234 18.157-1.6533 7.8052-7.2483 10.247-9.6848 7.8462-17.626-11.056 10.449-6.9846 8.7147-15.823 7.2966-6.9266-1.1115-6.9266-1.1115-7.6459-8.0896-0.91781-8.9039-2.8791-4.9368 8.1767-15.386zm-57.341 69.511c1.0557 1.117 1.006 2.8782-0.11094 3.9339-1.117 1.0557-2.8782 1.006-3.9339-0.11093-1.0557-1.117-1.006-2.8782 0.11095-3.9339 1.1169-1.0557 2.8782-1.006 3.9339 0.11096z"
      />
      <path
          id="path3974"
          style="stroke-linejoin:round;color:#000000;stroke:#5b5b5b;stroke-linecap:round;stroke-width:.68598;fill:#4d4d4d"
          inkscape:connector-curvature="0"
          d="m23.193 26.579 5.1285 6.4242 2.0514 0.75578 36.008 36.008-2.9152 2.9152 1.2416 1.2416 3.401-0.91774 26.182 30.501 4.6427 0.32392 3.401-0.91774 0.91774-3.401-0.32392-4.6427l-30.513-26.179 0.917-3.401-1.241-1.241-2.915 2.915-36.008-36.008-0.756-2.051-6.424-5.129-2.807 2.807z"
      />
    </g
    >
    <g
        id="g3926"
        transform="translate(537 451.39)"
      >
      <g
          id="layer1-17"
          transform="translate(0 -924.36)"
        >
        <path
            id="path3160-1"
            d="m128.29 64.865a63.766 63.892 0 1 1 -127.53 0 63.766 63.892 0 1 1 127.53 0z"
            style="stroke-linejoin:round;stroke:#000000;stroke-linecap:round;stroke-width:1.9947;fill:none"
            inkscape:connector-curvature="0"
            transform="matrix(.98823 0 0 .98628 .23592 924.39)"
        />
      </g
      >
      <path
          id="path3974-9"
          style="stroke-linejoin:round;color:#000000;stroke:#5b5b5b;stroke-linecap:round;stroke-width:.68598;fill:#4d4d4d"
          inkscape:connector-curvature="0"
          d="m23.82 27.82 5.129 6.424 2.051 0.756l36.008 36.008-2.9152 2.9152 1.2416 1.2416 3.401-0.91774 26.182 30.501 4.6427 0.32392 3.401-0.91774 0.91774-3.401-0.32392-4.6427-30.506-26.182 0.918-3.401-1.242-1.242-2.915 2.915-36.008-36.007-0.756-2.052-6.424-5.128-2.807 2.807z"
      />
      <path
          id="rect4018"
          sodipodi:nodetypes="ccccccssccssscccccccc"
          style="stroke-linejoin:round;color:#000000;stroke:#5b5b5b;stroke-linecap:round;stroke-width:.71597;fill:#4d4d4d"
          inkscape:connector-curvature="0"
          d="m108.44 50.828c-2.4501-1.2437-3.4972-0.33956-5.8115 0.81759l-0.84-5.834-19.978-19.976c-7.487-5.8232-19.973-6.6343-29.124-2.4749l5.016 1.6573s5.7985 0.83319 9.1261 2.497 7.2838 4.9065 8.3306 6.6512c1.046 1.745 0.839 5.834 0.839 5.834l0.95017 0.95017-53.784 53.784c-1.5368 1.5368-1.5368 4.0317-0.000002 5.5685l2.9168 2.9168c1.5368 1.5368 4.0726 1.5767 5.5685-0.00001l53.784-53.784 6.364 6.364 5.8336 0.83969c-1.5563 2.374-1.6748 3.3284-0.83969 5.8336l0.81759 0.81759 11.645-11.645z"
      />
    </g
    >
  </g
  >
  <metadata
    >
    <rdf:RDF
      >
      <cc:Work
        >
        <dc:format
          >image/svg+xml</dc:format
        >
        <dc:type
            rdf:resource="http://purl.org/dc/dcmitype/StillImage"
        />
        <cc:license
            rdf:resource="http://creativecommons.org/licenses/publicdomain/"
        />
        <dc:publisher
          >
          <cc:Agent
              rdf:about="http://openclipart.org/"
            >
            <dc:title
              >Openclipart</dc:title
            >
          </cc:Agent
          >
        </dc:publisher
        >
        <dc:title
          >Icon Set Setup</dc:title
        >
        <dc:date
          >2012-09-06T19:25:49</dc:date
        >
        <dc:description
          >Check others icons on my "Minimal Icon Set" collection.\nSet of simple grayscale icons representing configuraton, setup and mainenance actions. Useful for GUI design and application use interface.</dc:description
        >
        <dc:source
          >https://openclipart.org/detail/172196/icon-set-setup-by-mi_brami-172196</dc:source
        >
        <dc:creator
          >
          <cc:Agent
            >
            <dc:title
              >mi_brami</dc:title
            >
          </cc:Agent
          >
        </dc:creator
        >
        <dc:subject
          >
          <rdf:Bag
            >
            <rdf:li
              >B&amp;W</rdf:li
            >
            <rdf:li
              >Icon</rdf:li
            >
            <rdf:li
              >black</rdf:li
            >
            <rdf:li
              >cog</rdf:li
            >
            <rdf:li
              >cogs</rdf:li
            >
            <rdf:li
              >configuration</rdf:li
            >
            <rdf:li
              >configure</rdf:li
            >
            <rdf:li
              >gray</rdf:li
            >
            <rdf:li
              >hammer</rdf:li
            >
            <rdf:li
              >icon</rdf:li
            >
            <rdf:li
              >machine</rdf:li
            >
            <rdf:li
              >maintenance</rdf:li
            >
            <rdf:li
              >round</rdf:li
            >
            <rdf:li
              >screw</rdf:li
            >
            <rdf:li
              >screwdriver</rdf:li
            >
            <rdf:li
              >settings</rdf:li
            >
            <rdf:li
              >setup</rdf:li
            >
            <rdf:li
              >white</rdf:li
            >
            <rdf:li
              >works</rdf:li
            >
          </rdf:Bag
          >
        </dc:subject
        >
      </cc:Work
      >
      <cc:License
          rdf:about="http://creativecommons.org/licenses/publicdomain/"
        >
        <cc:permits
            rdf:resource="http://creativecommons.org/ns#Reproduction"
        />
        <cc:permits
            rdf:resource="http://creativecommons.org/ns#Distribution"
        />
        <cc:permits
            rdf:resource="http://creativecommons.org/ns#DerivativeWorks"
        />
      </cc:License
      >
    </rdf:RDF
    >
  </metadata
  >
</svg
>
