<?xml version="1.0" encoding="UTF-8" standalone="no"?>
<!-- Created with Inkscape (http://www.inkscape.org/) -->

<svg
   xmlns:dc="http://purl.org/dc/elements/1.1/"
   xmlns:cc="http://creativecommons.org/ns#"
   xmlns:rdf="http://www.w3.org/1999/02/22-rdf-syntax-ns#"
   xmlns:svg="http://www.w3.org/2000/svg"
   xmlns="http://www.w3.org/2000/svg"
   xmlns:sodipodi="http://sodipodi.sourceforge.net/DTD/sodipodi-0.dtd"
   xmlns:inkscape="http://www.inkscape.org/namespaces/inkscape"
   id="svg2"
   sodipodi:docname="posao.svg"
   viewBox="0 0 140 140"
   version="1.1"
   inkscape:version="0.91 r13725"
   inkscape:export-filename="/home/jnoel/Téléchargements/posao.png"
   inkscape:export-xdpi="213"
   inkscape:export-ydpi="213">
  <defs
     id="defs32" />
  <sodipodi:namedview
     id="base"
     bordercolor="#666666"
     inkscape:pageshadow="2"
     inkscape:window-y="0"
     fit-margin-left="0"
     pagecolor="#ffffff"
     fit-margin-top="0"
     inkscape:window-maximized="1"
     inkscape:zoom="1.0354064"
     inkscape:window-x="1920"
     inkscape:window-height="1051"
     showgrid="false"
     borderopacity="1.0"
     inkscape:current-layer="layer2"
     inkscape:cx="433.63367"
     inkscape:cy="-41.581712"
     fit-margin-right="0"
     fit-margin-bottom="0"
     inkscape:window-width="1920"
     inkscape:pageopacity="0.0"
     inkscape:document-units="px" />
  <g
     id="layer2"
     inkscape:label="Background"
     inkscape:groupmode="layer"
     transform="translate(30 30)">
    <rect
       id="rect3050"
       style="fill-rule:evenodd;fill:#4f5f6f"
       rx="0"
       height="140"
       width="140"
       y="-30"
       x="-30" />
    <g
       id="g4178"
       transform="matrix(0.20037889,0,0,0.20037889,-15.167196,-13.509761)">
      <path
         d="m 4.648,459.4 256,-443.42 c 5.53,-9.578 15.76,-15.48 26.82,-15.48 11.063,0 21.284,5.902 26.815,15.482 l 256,443.41 c 5.531,9.58 5.531,21.384 0,30.964 -5.53,9.58 -15.753,15.482 -26.815,15.482 l -512,0 c -11.062,0 -21.284,-5.902 -26.815,-15.482 -5.531,-9.58 -5.531,-21.384 0,-30.964 z"
         id="path3007"
         inkscape:connector-curvature="0"
         style="fill:#ffffff;stroke:#000000" />
      <path
         d="m 31.374,493.46 512.19,0 c 6.618,0 12.734,-3.531 16.044,-9.264 3.31,-5.731 3.31,-12.794 0,-18.525 L 303.518,22.101 c -3.31,-5.732 -9.425,-9.263 -16.044,-9.263 -6.619,0 -12.734,3.531 -16.043,9.263 l -256.09,443.57 c -3.31,5.731 -3.31,12.794 0,18.525 3.309,5.732 9.425,9.264 16.044,9.264 z"
         id="path3009"
         inkscape:connector-curvature="0"
         style="fill:#ff0101" />
      <polygon
         points="63.642,456.3 287.47,68.62 511.3,456.3 "
         id="polygon3011"
         style="fill:#ffffff" />
    </g>
    <flowRoot
       xml:space="preserve"
       id="flowRoot4301"
       style="font-style:normal;font-variant:normal;font-weight:normal;font-stretch:normal;font-size:40px;line-height:125%;font-family:Aclonica;-inkscape-font-specification:Aclonica;letter-spacing:0px;word-spacing:0px;fill:#333333;fill-opacity:1;stroke:none;stroke-width:1px;stroke-linecap:butt;stroke-linejoin:miter;stroke-opacity:1;"
       transform="matrix(1.5422749,0,0,1.5422749,114.18176,-21.233207)"><flowRegion
         id="flowRegion4303"><rect
           id="rect4305"
           width="49.980377"
           height="99.719299"
           x="-53.360691"
           y="22.413317"
           style="fill:#333333;fill-opacity:1;" /></flowRegion><flowPara
         id="flowPara4307">!</flowPara></flowRoot>  </g>
  <g
     id="layer3"
     style="opacity:.1"
     inkscape:label="Minor Grid"
     inkscape:groupmode="layer"
     transform="translate(30 30)">
    <rect
       id="rect3052"
       style="fill-rule:evenodd;fill:#ffffff"
       transform="translate(-24 -948.36)"
       height="140"
       width="1"
       y="918.36"
       x="1" />
    <rect
       id="rect3076"
       style="fill-rule:evenodd;fill:#ffffff"
       transform="matrix(0 -1 1 0 -24 -948.36)"
       height="140"
       width="1"
       y="-6"
       x="-926.36" />
    <rect
       id="rect3133"
       style="fill-rule:evenodd;fill:#ffffff"
       transform="matrix(0 -1 1 0 -24 -948.36)"
       height="140"
       width="1"
       y="-6"
       x="-940.36" />
    <rect
       id="rect3135"
       style="fill-rule:evenodd;fill:#ffffff"
       transform="matrix(0 -1 1 0 -24 -948.36)"
       height="140"
       width="1"
       y="-6"
       x="-954.36" />
    <rect
       id="rect3137"
       style="fill-rule:evenodd;fill:#ffffff"
       transform="matrix(0 -1 1 0 -24 -948.36)"
       height="140"
       width="1"
       y="-6"
       x="-968.36" />
    <rect
       id="rect3139"
       style="fill:#ffffff;fill-rule:evenodd"
       transform="matrix(0,-1,1,0,0,0)"
       height="140"
       width="1"
       y="-23.722271"
       x="-33.03418" />
    <rect
       id="rect3141"
       style="fill-rule:evenodd;fill:#ffffff"
       transform="matrix(0 -1 1 0 -24 -948.36)"
       height="140"
       width="1"
       y="-6"
       x="-996.36" />
    <rect
       id="rect3143"
       style="fill-rule:evenodd;fill:#ffffff"
       transform="matrix(0 -1 1 0 -24 -948.36)"
       height="140"
       width="1"
       y="-6"
       x="-1010.4" />
    <rect
       id="rect3145"
       style="fill-rule:evenodd;fill:#ffffff"
       transform="matrix(0 -1 1 0 -24 -948.36)"
       height="140"
       width="1"
       y="-6"
       x="-1024.4" />
    <rect
       id="rect3147"
       style="fill-rule:evenodd;fill:#ffffff"
       transform="matrix(0 -1 1 0 -24 -948.36)"
       height="140"
       width="1"
       y="-6"
       x="-1038.4" />
    <rect
       id="rect3149"
       style="fill-rule:evenodd;fill:#ffffff"
       transform="matrix(0 -1 1 0 -24 -948.36)"
       height="140"
       width="1"
       y="-6"
       x="-1052.4" />
    <rect
       id="rect3151"
       style="fill-rule:evenodd;fill:#ffffff"
       transform="translate(-24 -948.36)"
       height="140"
       width="1"
       y="918.36"
       x="15" />
    <rect
       id="rect3153"
       style="fill-rule:evenodd;fill:#ffffff"
       transform="translate(-24 -948.36)"
       height="140"
       width="1"
       y="918.36"
       x="29" />
    <rect
       id="rect3155"
       style="fill-rule:evenodd;fill:#ffffff"
       height="140"
       width="1"
       y="918.36"
       x="43"
       transform="translate(-24 -948.36)" />
    <rect
       id="rect3157"
       style="fill-rule:evenodd;fill:#ffffff"
       height="140"
       width="1"
       y="918.36"
       x="57"
       transform="translate(-24 -948.36)" />
    <rect
       id="rect3159"
       style="fill-rule:evenodd;fill:#ffffff"
       transform="translate(-24 -948.36)"
       height="140"
       width="1"
       y="918.36"
       x="71" />
    <rect
       id="rect3161"
       style="fill-rule:evenodd;fill:#ffffff"
       transform="translate(-24 -948.36)"
       height="140"
       width="1"
       y="918.36"
       x="85" />
    <rect
       id="rect3163"
       style="fill-rule:evenodd;fill:#ffffff"
       transform="translate(-24 -948.36)"
       height="140"
       width="1"
       y="918.36"
       x="99" />
    <rect
       id="rect3165"
       style="fill-rule:evenodd;fill:#ffffff"
       transform="translate(-24 -948.36)"
       height="140"
       width="1"
       y="918.36"
       x="113" />
    <rect
       id="rect3167"
       style="fill-rule:evenodd;fill:#ffffff"
       transform="translate(-24 -948.36)"
       height="140"
       width="1"
       y="918.36"
       x="127" />
  </g>
  <g
     id="layer4"
     style="opacity:.04"
     inkscape:label="Major Grid"
     inkscape:groupmode="layer"
     transform="translate(-5 -5)">
    <rect
       id="rect3292"
       style="fill-rule:evenodd;fill:#ffffff"
       height="140"
       width="14"
       y="5"
       x="5" />
    <rect
       id="rect3294"
       style="fill-rule:evenodd;fill:#ffffff"
       transform="rotate(-90)"
       height="140"
       width="14"
       y="5"
       x="-19" />
  </g>
  <metadata
     id="metadata30">
    <rdf:RDF>
      <cc:Work>
        <dc:format>image/svg+xml</dc:format>
        <dc:type
           rdf:resource="http://purl.org/dc/dcmitype/StillImage" />
        <cc:license
           rdf:resource="http://creativecommons.org/publicdomain/zero/1.0/" />
        <dc:publisher>
          <cc:Agent
             rdf:about="http://openclipart.org/">
            <dc:title>Openclipart</dc:title>
          </cc:Agent>
        </dc:publisher>
        <dc:title></dc:title>
        <dc:date>2012-08-20T16:30:09</dc:date>
        <dc:description>Wallpaper tile similar to blueprint design</dc:description>
        <dc:source>https://openclipart.org/detail/171834/architectural-intent-light-by-todd-partridge---gen2ly-171834</dc:source>
        <dc:creator>
          <cc:Agent>
            <dc:title>Todd Partridge - Gen2ly</dc:title>
          </cc:Agent>
        </dc:creator>
        <dc:subject>
          <rdf:Bag>
            <rdf:li>Architect</rdf:li>
            <rdf:li>Blueprint</rdf:li>
            <rdf:li>Grid</rdf:li>
            <rdf:li>Wallpaper</rdf:li>
          </rdf:Bag>
        </dc:subject>
      </cc:Work>
      <cc:License
         rdf:about="http://creativecommons.org/licenses/publicdomain/">
        <cc:permits
           rdf:resource="http://creativecommons.org/ns#Reproduction" />
        <cc:permits
           rdf:resource="http://creativecommons.org/ns#Distribution" />
        <cc:permits
           rdf:resource="http://creativecommons.org/ns#DerivativeWorks" />
      </cc:License>
    </rdf:RDF>
  </metadata>
</svg>
